PREP ANNEX 1 - case studies
…
stake  %>% count(key_stakes)

## # A tibble: 40 x 2
##    key_stakes                                                             n
##    <chr>                                                              <int>
##  1 "1) CIAS (Centro Internazionale di Aggiornamento Sperimentale-Sci     1
##  2 "Anas S.p.A. (Italian government-owned company deputed to the con     1
##  3 "Brazilian National Treasury"                                          1
##  4 "Bundesnetzagentur (Federal Network Agency for Electricity, Gas,      1
##  5 "Civil Aviation Authority of Singapore"                                1
##  6 "Department for Transport; Network rail"                               1
##  7 "Department of Infrastructure, Transport, Regional Development an     2
##  8 "Department of Public Works and Infrastructure"                        1
##  9 "Directorate General of Highways, Ministry of Public Work"             2
## 10 "Ethiopian Roads Authority (ERA), Ethiopian Road Fund Office"          1
## #  with 30 more rows
…
